<?xml version="1.0" standalone="no"?>
<!DOCTYPE svg PUBLIC "-//W3C//DTD SVG 20010904//EN"
 "http://www.w3.org/TR/2001/REC-SVG-20010904/DTD/svg10.dtd">
<svg version="1.0" xmlns="http://www.w3.org/2000/svg"
 width="2626.000000pt" height="2626.000000pt" viewBox="0 0 2626.000000 2626.000000"
 preserveAspectRatio="xMidYMid meet">
<metadata>
Created by potrace 1.11, written by Peter Selinger 2001-2013
</metadata>
<g transform="translate(0.000000,2626.000000) scale(0.100000,-0.100000)"
fill="#000000" stroke="none">
<path d="M3610 13130 l0 -13130 9520 0 9520 0 0 13130 0 13130 -9520 0 -9520
0 0 -13130z"/>
</g>
</svg>
